Rain Hartos - Mini Project 2: Data Aquisition
…
# Base prices without profession
base_crop_prices <- valid_crops_list |>
  purrr::map_dfr(~ crop_base_prices(.x)) |>
  mutate(profession = as.character(NA))

# Prices with Tiller profession
tiller_crop_prices <- valid_crops_list |>
  purrr::map_dfr(~ crop_base_prices(.x, tiller = TRUE)) |>
  mutate(profession = "tiller")

# Combine base and tiller crop prices
seasonal_crop_prices <- bind_rows(base_crop_prices, tiller_crop_prices)
seasonal_crop_prices

# A tibble: 80 × 6
   item        regular_price silver_price gold_price iridium_price profession
   <chr>               <dbl>        <dbl>      <dbl>         <dbl> <chr>     
 1 Blue_Jazz              50           62         75           100 <NA>      
 2 Carrot                 35           43         52            70 <NA>      
 3 Cauliflower           175          218        262           350 <NA>      
 4 Garlic                 60           75         90           120 <NA>      
 5 Green_Bean             40           50         60            80 <NA>      
 6 Kale                  110          137        165           220 <NA>      
 7 Parsnip                35           43         52            70 <NA>      
 8 Potato                 80          100        120           160 <NA>      
 9 Rhubarb               220          275        330           440 <NA>      
10 Strawberry            120          150        180           240 <NA>      
# ℹ 70 more rows
…
# for loop for iterating each tbl in our fish prices list to our final tibble
for (i in 2:12){
  tidy_fish_prices <- bind_rows(tidy_fish_prices, fish_prices[[i]])
}

# viewing and alphabetizing our tidy fish tbl 
# also joining our subcategories and assigning category
(tidy_fish_prices <- tidy_fish_prices |>
  left_join(subcategory, join_by(item == Fish)) |>
  mutate(category = "fish") |>
  rename(sub_category = Location) |>
  arrange(item))

# A tibble: 318 × 8
   item     regular_price silver_price gold_price iridium_price profession
   <chr>            <dbl>        <dbl>      <dbl>         <dbl> <chr>     
 1 Albacore            75           93        112           150 <NA>      
 2 Albacore            93          116        140           187 fisher    
 3 Albacore           112          139        168           225 angler    
 4 Anchovy             30           37         45            60 <NA>      
 5 Anchovy             37           46         56            75 fisher    
 6 Anchovy             45           55         67            90 angler    
 7 Angler             900         1125       1350          1800 <NA>      
 8 Angler             900         1125       1350          1800 <NA>      
 9 Angler            1125         1406       1687          2250 fisher    
10 Angler            1125         1406       1687          2250 fisher    
# ℹ 308 more rows
# ℹ 2 more variables: sub_category <chr>, category <chr>
…
